^D:\PVPGN1.99.0\SOURCE\SRC\D2CS\BNETD.CPP
/c /ID:/pvpgn1.99.0/build /ID:/pvpgn1.99.0/source/src /nologo /W3 /WX- /O2 /Ob2 /Oy- /D WIN32 /D _WINDOWS /D NDEBUG /D _CRT_SECURE_NO_DEPRECATE /D _CRT_NONSTDC_NO_DEPRECATE /D HAVE_CONFIG_H /D WITH_SQL_MYSQL /D WIN32_GUI /D "CMAKE_INTDIR=\"Release\"" /D _MBCS /Gm- /EHsc /MD /GS /fp:precise /Zc:wchar_t /Zc:forScope /GR /Fo"D2CS.DIR\RELEASE\\" /Fd"D2CS.DIR\RELEASE\VC120.PDB" /Gd /TP /analyze- D:\PVPGN1.99.0\SOURCE\SRC\D2CS\BNETD.CPP
^D:\PVPGN1.99.0\SOURCE\SRC\D2CS\CMDLINE.CPP
/c /ID:/pvpgn1.99.0/build /ID:/pvpgn1.99.0/source/src /nologo /W3 /WX- /O2 /Ob2 /Oy- /D WIN32 /D _WINDOWS /D NDEBUG /D _CRT_SECURE_NO_DEPRECATE /D _CRT_NONSTDC_NO_DEPRECATE /D HAVE_CONFIG_H /D WITH_SQL_MYSQL /D WIN32_GUI /D "CMAKE_INTDIR=\"Release\"" /D _MBCS /Gm- /EHsc /MD /GS /fp:precise /Zc:wchar_t /Zc:forScope /GR /Fo"D2CS.DIR\RELEASE\\" /Fd"D2CS.DIR\RELEASE\VC120.PDB" /Gd /TP /analyze- D:\PVPGN1.99.0\SOURCE\SRC\D2CS\CMDLINE.CPP
^D:\PVPGN1.99.0\SOURCE\SRC\D2CS\CONNECTION.CPP
/c /ID:/pvpgn1.99.0/build /ID:/pvpgn1.99.0/source/src /nologo /W3 /WX- /O2 /Ob2 /Oy- /D WIN32 /D _WINDOWS /D NDEBUG /D _CRT_SECURE_NO_DEPRECATE /D _CRT_NONSTDC_NO_DEPRECATE /D HAVE_CONFIG_H /D WITH_SQL_MYSQL /D WIN32_GUI /D "CMAKE_INTDIR=\"Release\"" /D _MBCS /Gm- /EHsc /MD /GS /fp:precise /Zc:wchar_t /Zc:forScope /GR /Fo"D2CS.DIR\RELEASE\\" /Fd"D2CS.DIR\RELEASE\VC120.PDB" /Gd /TP /analyze- D:\PVPGN1.99.0\SOURCE\SRC\D2CS\CONNECTION.CPP
^D:\PVPGN1.99.0\SOURCE\SRC\D2CS\D2CHARFILE.CPP
/c /ID:/pvpgn1.99.0/build /ID:/pvpgn1.99.0/source/src /nologo /W3 /WX- /O2 /Ob2 /Oy- /D WIN32 /D _WINDOWS /D NDEBUG /D _CRT_SECURE_NO_DEPRECATE /D _CRT_NONSTDC_NO_DEPRECATE /D HAVE_CONFIG_H /D WITH_SQL_MYSQL /D WIN32_GUI /D "CMAKE_INTDIR=\"Release\"" /D _MBCS /Gm- /EHsc /MD /GS /fp:precise /Zc:wchar_t /Zc:forScope /GR /Fo"D2CS.DIR\RELEASE\\" /Fd"D2CS.DIR\RELEASE\VC120.PDB" /Gd /TP /analyze- D:\PVPGN1.99.0\SOURCE\SRC\D2CS\D2CHARFILE.CPP
^D:\PVPGN1.99.0\SOURCE\SRC\D2CS\D2CHARLIST.CPP
/c /ID:/pvpgn1.99.0/build /ID:/pvpgn1.99.0/source/src /nologo /W3 /WX- /O2 /Ob2 /Oy- /D WIN32 /D _WINDOWS /D NDEBUG /D _CRT_SECURE_NO_DEPRECATE /D _CRT_NONSTDC_NO_DEPRECATE /D HAVE_CONFIG_H /D WITH_SQL_MYSQL /D WIN32_GUI /D "CMAKE_INTDIR=\"Release\"" /D _MBCS /Gm- /EHsc /MD /GS /fp:precise /Zc:wchar_t /Zc:forScope /GR /Fo"D2CS.DIR\RELEASE\\" /Fd"D2CS.DIR\RELEASE\VC120.PDB" /Gd /TP /analyze- D:\PVPGN1.99.0\SOURCE\SRC\D2CS\D2CHARLIST.CPP
^D:\PVPGN1.99.0\SOURCE\SRC\D2CS\D2GS.CPP
/c /ID:/pvpgn1.99.0/build /ID:/pvpgn1.99.0/source/src /nologo /W3 /WX- /O2 /Ob2 /Oy- /D WIN32 /D _WINDOWS /D NDEBUG /D _CRT_SECURE_NO_DEPRECATE /D _CRT_NONSTDC_NO_DEPRECATE /D HAVE_CONFIG_H /D WITH_SQL_MYSQL /D WIN32_GUI /D "CMAKE_INTDIR=\"Release\"" /D _MBCS /Gm- /EHsc /MD /GS /fp:precise /Zc:wchar_t /Zc:forScope /GR /Fo"D2CS.DIR\RELEASE\\" /Fd"D2CS.DIR\RELEASE\VC120.PDB" /Gd /TP /analyze- D:\PVPGN1.99.0\SOURCE\SRC\D2CS\D2GS.CPP
^D:\PVPGN1.99.0\SOURCE\SRC\D2CS\D2LADDER.CPP
/c /ID:/pvpgn1.99.0/build /ID:/pvpgn1.99.0/source/src /nologo /W3 /WX- /O2 /Ob2 /Oy- /D WIN32 /D _WINDOWS /D NDEBUG /D _CRT_SECURE_NO_DEPRECATE /D _CRT_NONSTDC_NO_DEPRECATE /D HAVE_CONFIG_H /D WITH_SQL_MYSQL /D WIN32_GUI /D "CMAKE_INTDIR=\"Release\"" /D _MBCS /Gm- /EHsc /MD /GS /fp:precise /Zc:wchar_t /Zc:forScope /GR /Fo"D2CS.DIR\RELEASE\\" /Fd"D2CS.DIR\RELEASE\VC120.PDB" /Gd /TP /analyze- D:\PVPGN1.99.0\SOURCE\SRC\D2CS\D2LADDER.CPP
^D:\PVPGN1.99.0\SOURCE\SRC\D2CS\GAME.CPP
/c /ID:/pvpgn1.99.0/build /ID:/pvpgn1.99.0/source/src /nologo /W3 /WX- /O2 /Ob2 /Oy- /D WIN32 /D _WINDOWS /D NDEBUG /D _CRT_SECURE_NO_DEPRECATE /D _CRT_NONSTDC_NO_DEPRECATE /D HAVE_CONFIG_H /D WITH_SQL_MYSQL /D WIN32_GUI /D "CMAKE_INTDIR=\"Release\"" /D _MBCS /Gm- /EHsc /MD /GS /fp:precise /Zc:wchar_t /Zc:forScope /GR /Fo"D2CS.DIR\RELEASE\\" /Fd"D2CS.DIR\RELEASE\VC120.PDB" /Gd /TP /analyze- D:\PVPGN1.99.0\SOURCE\SRC\D2CS\GAME.CPP
^D:\PVPGN1.99.0\SOURCE\SRC\D2CS\GAMEQUEUE.CPP
/c /ID:/pvpgn1.99.0/build /ID:/pvpgn1.99.0/source/src /nologo /W3 /WX- /O2 /Ob2 /Oy- /D WIN32 /D _WINDOWS /D NDEBUG /D _CRT_SECURE_NO_DEPRECATE /D _CRT_NONSTDC_NO_DEPRECATE /D HAVE_CONFIG_H /D WITH_SQL_MYSQL /D WIN32_GUI /D "CMAKE_INTDIR=\"Release\"" /D _MBCS /Gm- /EHsc /MD /GS /fp:precise /Zc:wchar_t /Zc:forScope /GR /Fo"D2CS.DIR\RELEASE\\" /Fd"D2CS.DIR\RELEASE\VC120.PDB" /Gd /TP /analyze- D:\PVPGN1.99.0\SOURCE\SRC\D2CS\GAMEQUEUE.CPP
^D:\PVPGN1.99.0\SOURCE\SRC\D2CS\HANDLE_BNETD.CPP
/c /ID:/pvpgn1.99.0/build /ID:/pvpgn1.99.0/source/src /nologo /W3 /WX- /O2 /Ob2 /Oy- /D WIN32 /D _WINDOWS /D NDEBUG /D _CRT_SECURE_NO_DEPRECATE /D _CRT_NONSTDC_NO_DEPRECATE /D HAVE_CONFIG_H /D WITH_SQL_MYSQL /D WIN32_GUI /D "CMAKE_INTDIR=\"Release\"" /D _MBCS /Gm- /EHsc /MD /GS /fp:precise /Zc:wchar_t /Zc:forScope /GR /Fo"D2CS.DIR\RELEASE\\" /Fd"D2CS.DIR\RELEASE\VC120.PDB" /Gd /TP /analyze- D:\PVPGN1.99.0\SOURCE\SRC\D2CS\HANDLE_BNETD.CPP
^D:\PVPGN1.99.0\SOURCE\SRC\D2CS\HANDLE_D2CS.CPP
/c /ID:/pvpgn1.99.0/build /ID:/pvpgn1.99.0/source/src /nologo /W3 /WX- /O2 /Ob2 /Oy- /D WIN32 /D _WINDOWS /D NDEBUG /D _CRT_SECURE_NO_DEPRECATE /D _CRT_NONSTDC_NO_DEPRECATE /D HAVE_CONFIG_H /D WITH_SQL_MYSQL /D WIN32_GUI /D "CMAKE_INTDIR=\"Release\"" /D _MBCS /Gm- /EHsc /MD /GS /fp:precise /Zc:wchar_t /Zc:forScope /GR /Fo"D2CS.DIR\RELEASE\\" /Fd"D2CS.DIR\RELEASE\VC120.PDB" /Gd /TP /analyze- D:\PVPGN1.99.0\SOURCE\SRC\D2CS\HANDLE_D2CS.CPP
^D:\PVPGN1.99.0\SOURCE\SRC\D2CS\HANDLE_D2GS.CPP
/c /ID:/pvpgn1.99.0/build /ID:/pvpgn1.99.0/source/src /nologo /W3 /WX- /O2 /Ob2 /Oy- /D WIN32 /D _WINDOWS /D NDEBUG /D _CRT_SECURE_NO_DEPRECATE /D _CRT_NONSTDC_NO_DEPRECATE /D HAVE_CONFIG_H /D WITH_SQL_MYSQL /D WIN32_GUI /D "CMAKE_INTDIR=\"Release\"" /D _MBCS /Gm- /EHsc /MD /GS /fp:precise /Zc:wchar_t /Zc:forScope /GR /Fo"D2CS.DIR\RELEASE\\" /Fd"D2CS.DIR\RELEASE\VC120.PDB" /Gd /TP /analyze- D:\PVPGN1.99.0\SOURCE\SRC\D2CS\HANDLE_D2GS.CPP
^D:\PVPGN1.99.0\SOURCE\SRC\D2CS\HANDLE_INIT.CPP
/c /ID:/pvpgn1.99.0/build /ID:/pvpgn1.99.0/source/src /nologo /W3 /WX- /O2 /Ob2 /Oy- /D WIN32 /D _WINDOWS /D NDEBUG /D _CRT_SECURE_NO_DEPRECATE /D _CRT_NONSTDC_NO_DEPRECATE /D HAVE_CONFIG_H /D WITH_SQL_MYSQL /D WIN32_GUI /D "CMAKE_INTDIR=\"Release\"" /D _MBCS /Gm- /EHsc /MD /GS /fp:precise /Zc:wchar_t /Zc:forScope /GR /Fo"D2CS.DIR\RELEASE\\" /Fd"D2CS.DIR\RELEASE\VC120.PDB" /Gd /TP /analyze- D:\PVPGN1.99.0\SOURCE\SRC\D2CS\HANDLE_INIT.CPP
^D:\PVPGN1.99.0\SOURCE\SRC\D2CS\HANDLE_SIGNAL.CPP
/c /ID:/pvpgn1.99.0/build /ID:/pvpgn1.99.0/source/src /nologo /W3 /WX- /O2 /Ob2 /Oy- /D WIN32 /D _WINDOWS /D NDEBUG /D _CRT_SECURE_NO_DEPRECATE /D _CRT_NONSTDC_NO_DEPRECATE /D HAVE_CONFIG_H /D WITH_SQL_MYSQL /D WIN32_GUI /D "CMAKE_INTDIR=\"Release\"" /D _MBCS /Gm- /EHsc /MD /GS /fp:precise /Zc:wchar_t /Zc:forScope /GR /Fo"D2CS.DIR\RELEASE\\" /Fd"D2CS.DIR\RELEASE\VC120.PDB" /Gd /TP /analyze- D:\PVPGN1.99.0\SOURCE\SRC\D2CS\HANDLE_SIGNAL.CPP
^D:\PVPGN1.99.0\SOURCE\SRC\D2CS\MAIN.CPP
/c /ID:/pvpgn1.99.0/build /ID:/pvpgn1.99.0/source/src /nologo /W3 /WX- /O2 /Ob2 /Oy- /D WIN32 /D _WINDOWS /D NDEBUG /D _CRT_SECURE_NO_DEPRECATE /D _CRT_NONSTDC_NO_DEPRECATE /D HAVE_CONFIG_H /D WITH_SQL_MYSQL /D WIN32_GUI /D "CMAKE_INTDIR=\"Release\"" /D _MBCS /Gm- /EHsc /MD /GS /fp:precise /Zc:wchar_t /Zc:forScope /GR /Fo"D2CS.DIR\RELEASE\\" /Fd"D2CS.DIR\RELEASE\VC120.PDB" /Gd /TP /analyze- D:\PVPGN1.99.0\SOURCE\SRC\D2CS\MAIN.CPP
^D:\PVPGN1.99.0\SOURCE\SRC\D2CS\NET.CPP
/c /ID:/pvpgn1.99.0/build /ID:/pvpgn1.99.0/source/src /nologo /W3 /WX- /O2 /Ob2 /Oy- /D WIN32 /D _WINDOWS /D NDEBUG /D _CRT_SECURE_NO_DEPRECATE /D _CRT_NONSTDC_NO_DEPRECATE /D HAVE_CONFIG_H /D WITH_SQL_MYSQL /D WIN32_GUI /D "CMAKE_INTDIR=\"Release\"" /D _MBCS /Gm- /EHsc /MD /GS /fp:precise /Zc:wchar_t /Zc:forScope /GR /Fo"D2CS.DIR\RELEASE\\" /Fd"D2CS.DIR\RELEASE\VC120.PDB" /Gd /TP /analyze- D:\PVPGN1.99.0\SOURCE\SRC\D2CS\NET.CPP
^D:\PVPGN1.99.0\SOURCE\SRC\D2CS\PREFS.CPP
/c /ID:/pvpgn1.99.0/build /ID:/pvpgn1.99.0/source/src /nologo /W3 /WX- /O2 /Ob2 /Oy- /D WIN32 /D _WINDOWS /D NDEBUG /D _CRT_SECURE_NO_DEPRECATE /D _CRT_NONSTDC_NO_DEPRECATE /D HAVE_CONFIG_H /D WITH_SQL_MYSQL /D WIN32_GUI /D "CMAKE_INTDIR=\"Release\"" /D _MBCS /Gm- /EHsc /MD /GS /fp:precise /Zc:wchar_t /Zc:forScope /GR /Fo"D2CS.DIR\RELEASE\\" /Fd"D2CS.DIR\RELEASE\VC120.PDB" /Gd /TP /analyze- D:\PVPGN1.99.0\SOURCE\SRC\D2CS\PREFS.CPP
^D:\PVPGN1.99.0\SOURCE\SRC\D2CS\S2S.CPP
/c /ID:/pvpgn1.99.0/build /ID:/pvpgn1.99.0/source/src /nologo /W3 /WX- /O2 /Ob2 /Oy- /D WIN32 /D _WINDOWS /D NDEBUG /D _CRT_SECURE_NO_DEPRECATE /D _CRT_NONSTDC_NO_DEPRECATE /D HAVE_CONFIG_H /D WITH_SQL_MYSQL /D WIN32_GUI /D "CMAKE_INTDIR=\"Release\"" /D _MBCS /Gm- /EHsc /MD /GS /fp:precise /Zc:wchar_t /Zc:forScope /GR /Fo"D2CS.DIR\RELEASE\\" /Fd"D2CS.DIR\RELEASE\VC120.PDB" /Gd /TP /analyze- D:\PVPGN1.99.0\SOURCE\SRC\D2CS\S2S.CPP
^D:\PVPGN1.99.0\SOURCE\SRC\D2CS\SERVER.CPP
/c /ID:/pvpgn1.99.0/build /ID:/pvpgn1.99.0/source/src /nologo /W3 /WX- /O2 /Ob2 /Oy- /D WIN32 /D _WINDOWS /D NDEBUG /D _CRT_SECURE_NO_DEPRECATE /D _CRT_NONSTDC_NO_DEPRECATE /D HAVE_CONFIG_H /D WITH_SQL_MYSQL /D WIN32_GUI /D "CMAKE_INTDIR=\"Release\"" /D _MBCS /Gm- /EHsc /MD /GS /fp:precise /Zc:wchar_t /Zc:forScope /GR /Fo"D2CS.DIR\RELEASE\\" /Fd"D2CS.DIR\RELEASE\VC120.PDB" /Gd /TP /analyze- D:\PVPGN1.99.0\SOURCE\SRC\D2CS\SERVER.CPP
^D:\PVPGN1.99.0\SOURCE\SRC\D2CS\SERVERQUEUE.CPP
/c /ID:/pvpgn1.99.0/build /ID:/pvpgn1.99.0/source/src /nologo /W3 /WX- /O2 /Ob2 /Oy- /D WIN32 /D _WINDOWS /D NDEBUG /D _CRT_SECURE_NO_DEPRECATE /D _CRT_NONSTDC_NO_DEPRECATE /D HAVE_CONFIG_H /D WITH_SQL_MYSQL /D WIN32_GUI /D "CMAKE_INTDIR=\"Release\"" /D _MBCS /Gm- /EHsc /MD /GS /fp:precise /Zc:wchar_t /Zc:forScope /GR /Fo"D2CS.DIR\RELEASE\\" /Fd"D2CS.DIR\RELEASE\VC120.PDB" /Gd /TP /analyze- D:\PVPGN1.99.0\SOURCE\SRC\D2CS\SERVERQUEUE.CPP
^D:\PVPGN1.99.0\SOURCE\SRC\WIN32\D2CS_WINMAIN.CPP
/c /ID:/pvpgn1.99.0/build /ID:/pvpgn1.99.0/source/src /nologo /W3 /WX- /O2 /Ob2 /Oy- /D WIN32 /D _WINDOWS /D NDEBUG /D _CRT_SECURE_NO_DEPRECATE /D _CRT_NONSTDC_NO_DEPRECATE /D HAVE_CONFIG_H /D WITH_SQL_MYSQL /D WIN32_GUI /D "CMAKE_INTDIR=\"Release\"" /D _MBCS /Gm- /EHsc /MD /GS /fp:precise /Zc:wchar_t /Zc:forScope /GR /Fo"D2CS.DIR\RELEASE\\" /Fd"D2CS.DIR\RELEASE\VC120.PDB" /Gd /TP /analyze- D:\PVPGN1.99.0\SOURCE\SRC\WIN32\D2CS_WINMAIN.CPP
