^D:\PVPGN1.99.0\SOURCE\SRC\WIN32\CONSOLE_OUTPUT.CPP|D:\PVPGN1.99.0\SOURCE\SRC\WIN32\SERVICE.CPP
D:\PVPGN1.99.0\BUILD\SRC\WIN32\WIN32.DIR\RELEASE\CONSOLE_OUTPUT.OBJ
D:\PVPGN1.99.0\BUILD\SRC\WIN32\WIN32.DIR\RELEASE\SERVICE.OBJ
