^D:\PVPGN1.99.0\BUILD\SRC\COMPAT\COMPAT.DIR\RELEASE\GETTIMEOFDAY.OBJ|D:\PVPGN1.99.0\BUILD\SRC\COMPAT\COMPAT.DIR\RELEASE\INET_ATON.OBJ|D:\PVPGN1.99.0\BUILD\SRC\COMPAT\COMPAT.DIR\RELEASE\INET_NTOA.OBJ|D:\PVPGN1.99.0\BUILD\SRC\COMPAT\COMPAT.DIR\RELEASE\MMAP.OBJ|D:\PVPGN1.99.0\BUILD\SRC\COMPAT\COMPAT.DIR\RELEASE\PDIR.OBJ|D:\PVPGN1.99.0\BUILD\SRC\COMPAT\COMPAT.DIR\RELEASE\PGETOPT.OBJ|D:\PVPGN1.99.0\BUILD\SRC\COMPAT\COMPAT.DIR\RELEASE\PSOCK.OBJ|D:\PVPGN1.99.0\BUILD\SRC\COMPAT\COMPAT.DIR\RELEASE\SNPRINTF.OBJ|D:\PVPGN1.99.0\BUILD\SRC\COMPAT\COMPAT.DIR\RELEASE\STRCASECMP.OBJ|D:\PVPGN1.99.0\BUILD\SRC\COMPAT\COMPAT.DIR\RELEASE\STRDUP.OBJ|D:\PVPGN1.99.0\BUILD\SRC\COMPAT\COMPAT.DIR\RELEASE\STRERROR.OBJ|D:\PVPGN1.99.0\BUILD\SRC\COMPAT\COMPAT.DIR\RELEASE\STRNCASECMP.OBJ|D:\PVPGN1.99.0\BUILD\SRC\COMPAT\COMPAT.DIR\RELEASE\STRSEP.OBJ|D:\PVPGN1.99.0\BUILD\SRC\COMPAT\COMPAT.DIR\RELEASE\STRTOUL.OBJ|D:\PVPGN1.99.0\BUILD\SRC\COMPAT\COMPAT.DIR\RELEASE\UNAME.OBJ|D:\PVPGN1.99.0\BUILD\SRC\COMPAT\COMPAT.DIR\RELEASE\VSNPRINTF.OBJ
C:\WINDOWS\SYSTEM32\TZRES.DLL
D:\PVPGN1.99.0\BUILD\SRC\COMPAT\COMPAT.DIR\RELEASE\GETTIMEOFDAY.OBJ
D:\PVPGN1.99.0\BUILD\SRC\COMPAT\COMPAT.DIR\RELEASE\INET_ATON.OBJ
D:\PVPGN1.99.0\BUILD\SRC\COMPAT\COMPAT.DIR\RELEASE\INET_NTOA.OBJ
D:\PVPGN1.99.0\BUILD\SRC\COMPAT\COMPAT.DIR\RELEASE\MMAP.OBJ
D:\PVPGN1.99.0\BUILD\SRC\COMPAT\COMPAT.DIR\RELEASE\PDIR.OBJ
D:\PVPGN1.99.0\BUILD\SRC\COMPAT\COMPAT.DIR\RELEASE\PGETOPT.OBJ
D:\PVPGN1.99.0\BUILD\SRC\COMPAT\COMPAT.DIR\RELEASE\PSOCK.OBJ
D:\PVPGN1.99.0\BUILD\SRC\COMPAT\COMPAT.DIR\RELEASE\SNPRINTF.OBJ
D:\PVPGN1.99.0\BUILD\SRC\COMPAT\COMPAT.DIR\RELEASE\STRCASECMP.OBJ
D:\PVPGN1.99.0\BUILD\SRC\COMPAT\COMPAT.DIR\RELEASE\STRDUP.OBJ
D:\PVPGN1.99.0\BUILD\SRC\COMPAT\COMPAT.DIR\RELEASE\STRERROR.OBJ
D:\PVPGN1.99.0\BUILD\SRC\COMPAT\COMPAT.DIR\RELEASE\STRNCASECMP.OBJ
D:\PVPGN1.99.0\BUILD\SRC\COMPAT\COMPAT.DIR\RELEASE\STRSEP.OBJ
D:\PVPGN1.99.0\BUILD\SRC\COMPAT\COMPAT.DIR\RELEASE\STRTOUL.OBJ
D:\PVPGN1.99.0\BUILD\SRC\COMPAT\COMPAT.DIR\RELEASE\UNAME.OBJ
D:\PVPGN1.99.0\BUILD\SRC\COMPAT\COMPAT.DIR\RELEASE\VSNPRINTF.OBJ
C:\WINDOWS\GLOBALIZATION\SORTING\SORTDEFAULT.NLS
