^D:\PVPGN1.99.0\SOURCE\SRC\COMMON\HEXDUMP.CPP|D:\PVPGN1.99.0\SOURCE\SRC\COMMON\NETWORK.CPP|D:\PVPGN1.99.0\SOURCE\SRC\COMMON\PACKET.CPP|D:\PVPGN1.99.0\SOURCE\SRC\COMMON\QUEUE.CPP
D:\PVPGN1.99.0\BUILD\SRC\COMMON\COMMON.DIR\RELEASE\QUEUE.OBJ
D:\PVPGN1.99.0\BUILD\SRC\COMMON\COMMON.DIR\RELEASE\PACKET.OBJ
D:\PVPGN1.99.0\BUILD\SRC\COMMON\COMMON.DIR\RELEASE\NETWORK.OBJ
D:\PVPGN1.99.0\BUILD\SRC\COMMON\COMMON.DIR\RELEASE\HEXDUMP.OBJ
^D:\PVPGN1.99.0\SOURCE\SRC\COMMON\ADDR.CPP|D:\PVPGN1.99.0\SOURCE\SRC\COMMON\ASNPRINTF.CPP|D:\PVPGN1.99.0\SOURCE\SRC\COMMON\BIGINT.CPP|D:\PVPGN1.99.0\SOURCE\SRC\COMMON\BNETHASH.CPP|D:\PVPGN1.99.0\SOURCE\SRC\COMMON\BNETHASHCONV.CPP|D:\PVPGN1.99.0\SOURCE\SRC\COMMON\BNETSRP3.CPP|D:\PVPGN1.99.0\SOURCE\SRC\COMMON\BNETTIME.CPP|D:\PVPGN1.99.0\SOURCE\SRC\COMMON\BN_TYPE.CPP|D:\PVPGN1.99.0\SOURCE\SRC\COMMON\CONF.CPP|D:\PVPGN1.99.0\SOURCE\SRC\COMMON\D2CHAR_CHECKSUM.CPP|D:\PVPGN1.99.0\SOURCE\SRC\COMMON\EVENTLOG.CPP|D:\PVPGN1.99.0\SOURCE\SRC\COMMON\FDWATCH.CPP|D:\PVPGN1.99.0\SOURCE\SRC\COMMON\FDWATCH_EPOLL.CPP|D:\PVPGN1.99.0\SOURCE\SRC\COMMON\FDWATCH_KQUEUE.CPP|D:\PVPGN1.99.0\SOURCE\SRC\COMMON\FDWATCH_POLL.CPP|D:\PVPGN1.99.0\SOURCE\SRC\COMMON\FDWATCH_SELECT.CPP|D:\PVPGN1.99.0\SOURCE\SRC\COMMON\FDWBACKEND.CPP|D:\PVPGN1.99.0\SOURCE\SRC\COMMON\GIVE_UP_ROOT_PRIVILEGES.CPP|D:\PVPGN1.99.0\SOURCE\SRC\COMMON\GUI_PRINTF.CPP|D:\PVPGN1.99.0\SOURCE\SRC\COMMON\HASHTABLE.CPP|D:\PVPGN1.99.0\SOURCE\SRC\COMMON\HEXDUMP.CPP|D:\PVPGN1.99.0\SOURCE\SRC\COMMON\LIST.CPP|D:\PVPGN1.99.0\SOURCE\SRC\COMMON\NETWORK.CPP|D:\PVPGN1.99.0\SOURCE\SRC\COMMON\PACKET.CPP|D:\PVPGN1.99.0\SOURCE\SRC\COMMON\PEERCHAT.CPP|D:\PVPGN1.99.0\SOURCE\SRC\COMMON\PROGINFO.CPP|D:\PVPGN1.99.0\SOURCE\SRC\COMMON\QUEUE.CPP|D:\PVPGN1.99.0\SOURCE\SRC\COMMON\RCM.CPP|D:\PVPGN1.99.0\SOURCE\SRC\COMMON\RLIMIT.CPP|D:\PVPGN1.99.0\SOURCE\SRC\COMMON\SYSTEMERROR.CPP|D:\PVPGN1.99.0\SOURCE\SRC\COMMON\TAG.CPP|D:\PVPGN1.99.0\SOURCE\SRC\COMMON\TOKEN.CPP|D:\PVPGN1.99.0\SOURCE\SRC\COMMON\TRANS.CPP|D:\PVPGN1.99.0\SOURCE\SRC\COMMON\UTIL.CPP|D:\PVPGN1.99.0\SOURCE\SRC\COMMON\WOLHASH.CPP|D:\PVPGN1.99.0\SOURCE\SRC\COMMON\XALLOC.CPP|D:\PVPGN1.99.0\SOURCE\SRC\COMMON\XSTR.CPP|D:\PVPGN1.99.0\SOURCE\SRC\COMMON\XSTRING.CPP
D:\PVPGN1.99.0\BUILD\SRC\COMMON\COMMON.DIR\RELEASE\HASHTABLE.OBJ
D:\PVPGN1.99.0\BUILD\SRC\COMMON\COMMON.DIR\RELEASE\GUI_PRINTF.OBJ
D:\PVPGN1.99.0\BUILD\SRC\COMMON\COMMON.DIR\RELEASE\GIVE_UP_ROOT_PRIVILEGES.OBJ
D:\PVPGN1.99.0\BUILD\SRC\COMMON\COMMON.DIR\RELEASE\FDWBACKEND.OBJ
D:\PVPGN1.99.0\BUILD\SRC\COMMON\COMMON.DIR\RELEASE\FDWATCH_SELECT.OBJ
D:\PVPGN1.99.0\BUILD\SRC\COMMON\COMMON.DIR\RELEASE\FDWATCH_POLL.OBJ
D:\PVPGN1.99.0\BUILD\SRC\COMMON\COMMON.DIR\RELEASE\FDWATCH_KQUEUE.OBJ
D:\PVPGN1.99.0\BUILD\SRC\COMMON\COMMON.DIR\RELEASE\FDWATCH_EPOLL.OBJ
D:\PVPGN1.99.0\BUILD\SRC\COMMON\COMMON.DIR\RELEASE\FDWATCH.OBJ
D:\PVPGN1.99.0\BUILD\SRC\COMMON\COMMON.DIR\RELEASE\EVENTLOG.OBJ
D:\PVPGN1.99.0\BUILD\SRC\COMMON\COMMON.DIR\RELEASE\D2CHAR_CHECKSUM.OBJ
D:\PVPGN1.99.0\BUILD\SRC\COMMON\COMMON.DIR\RELEASE\CONF.OBJ
D:\PVPGN1.99.0\BUILD\SRC\COMMON\COMMON.DIR\RELEASE\BNETTIME.OBJ
D:\PVPGN1.99.0\BUILD\SRC\COMMON\COMMON.DIR\RELEASE\BNETSRP3.OBJ
D:\PVPGN1.99.0\BUILD\SRC\COMMON\COMMON.DIR\RELEASE\BNETHASHCONV.OBJ
D:\PVPGN1.99.0\BUILD\SRC\COMMON\COMMON.DIR\RELEASE\BNETHASH.OBJ
D:\PVPGN1.99.0\BUILD\SRC\COMMON\COMMON.DIR\RELEASE\BN_TYPE.OBJ
D:\PVPGN1.99.0\BUILD\SRC\COMMON\COMMON.DIR\RELEASE\BIGINT.OBJ
D:\PVPGN1.99.0\BUILD\SRC\COMMON\COMMON.DIR\RELEASE\ASNPRINTF.OBJ
D:\PVPGN1.99.0\BUILD\SRC\COMMON\COMMON.DIR\RELEASE\ADDR.OBJ
D:\PVPGN1.99.0\BUILD\SRC\COMMON\COMMON.DIR\RELEASE\XSTRING.OBJ
D:\PVPGN1.99.0\BUILD\SRC\COMMON\COMMON.DIR\RELEASE\XSTR.OBJ
D:\PVPGN1.99.0\BUILD\SRC\COMMON\COMMON.DIR\RELEASE\XALLOC.OBJ
D:\PVPGN1.99.0\BUILD\SRC\COMMON\COMMON.DIR\RELEASE\WOLHASH.OBJ
D:\PVPGN1.99.0\BUILD\SRC\COMMON\COMMON.DIR\RELEASE\UTIL.OBJ
D:\PVPGN1.99.0\BUILD\SRC\COMMON\COMMON.DIR\RELEASE\TRANS.OBJ
D:\PVPGN1.99.0\BUILD\SRC\COMMON\COMMON.DIR\RELEASE\TOKEN.OBJ
D:\PVPGN1.99.0\BUILD\SRC\COMMON\COMMON.DIR\RELEASE\TAG.OBJ
D:\PVPGN1.99.0\BUILD\SRC\COMMON\COMMON.DIR\RELEASE\SYSTEMERROR.OBJ
D:\PVPGN1.99.0\BUILD\SRC\COMMON\COMMON.DIR\RELEASE\RLIMIT.OBJ
D:\PVPGN1.99.0\BUILD\SRC\COMMON\COMMON.DIR\RELEASE\RCM.OBJ
D:\PVPGN1.99.0\BUILD\SRC\COMMON\COMMON.DIR\RELEASE\QUEUE.OBJ
D:\PVPGN1.99.0\BUILD\SRC\COMMON\COMMON.DIR\RELEASE\PROGINFO.OBJ
D:\PVPGN1.99.0\BUILD\SRC\COMMON\COMMON.DIR\RELEASE\PEERCHAT.OBJ
D:\PVPGN1.99.0\BUILD\SRC\COMMON\COMMON.DIR\RELEASE\PACKET.OBJ
D:\PVPGN1.99.0\BUILD\SRC\COMMON\COMMON.DIR\RELEASE\NETWORK.OBJ
D:\PVPGN1.99.0\BUILD\SRC\COMMON\COMMON.DIR\RELEASE\LIST.OBJ
D:\PVPGN1.99.0\BUILD\SRC\COMMON\COMMON.DIR\RELEASE\HEXDUMP.OBJ
