﻿Build started 8/14/2023 9:30:00 PM.
     1>Project "D:\pvpgn1.99.0\build\src\d2cs\d2cs.vcxproj" on node 2 (Build target(s)).
     1>ClCompile:
         C:\Program Files (x86)\Microsoft Visual Studio 12.0\VC\bin\CL.exe /c /ID:/pvpgn1.99.0/build /ID:/pvpgn1.99.0/source/src /nologo /W3 /WX- /O2 /Ob2 /Oy- /D WIN32 /D _WINDOWS /D NDEBUG /D _CRT_SECURE_NO_DEPRECATE /D _CRT_NONSTDC_NO_DEPRECATE /D HAVE_CONFIG_H /D WITH_SQL_MYSQL /D WIN32_GUI /D "CMAKE_INTDIR=\"Release\"" /D _MBCS /Gm- /EHsc /MD /GS /fp:precise /Zc:wchar_t /Zc:forScope /GR /Fo"d2cs.dir\Release\\" /Fd"d2cs.dir\Release\vc120.pdb" /Gd /TP /analyze- /errorReport:prompt D:\pvpgn1.99.0\source\src\d2cs\bnetd.cpp D:\pvpgn1.99.0\source\src\d2cs\cmdline.cpp D:\pvpgn1.99.0\source\src\d2cs\connection.cpp D:\pvpgn1.99.0\source\src\d2cs\d2charfile.cpp D:\pvpgn1.99.0\source\src\d2cs\d2charlist.cpp D:\pvpgn1.99.0\source\src\d2cs\d2gs.cpp D:\pvpgn1.99.0\source\src\d2cs\d2ladder.cpp D:\pvpgn1.99.0\source\src\d2cs\game.cpp D:\pvpgn1.99.0\source\src\d2cs\gamequeue.cpp D:\pvpgn1.99.0\source\src\d2cs\handle_bnetd.cpp D:\pvpgn1.99.0\source\src\d2cs\handle_d2cs.cpp D:\pvpgn1.99.0\source\src\d2cs\handle_d2gs.cpp D:\pvpgn1.99.0\source\src\d2cs\handle_init.cpp D:\pvpgn1.99.0\source\src\d2cs\handle_signal.cpp D:\pvpgn1.99.0\source\src\d2cs\main.cpp D:\pvpgn1.99.0\source\src\d2cs\net.cpp D:\pvpgn1.99.0\source\src\d2cs\prefs.cpp D:\pvpgn1.99.0\source\src\d2cs\s2s.cpp D:\pvpgn1.99.0\source\src\d2cs\server.cpp D:\pvpgn1.99.0\source\src\d2cs\serverqueue.cpp D:\pvpgn1.99.0\source\src\win32\d2cs_winmain.cpp
         bnetd.cpp
     1>D:\pvpgn1.99.0\source\src\d2cs\bnetd.cpp(63): warning C4244: '=' : conversion from 'time_t' to 'unsigned int', possible loss of data
         cmdline.cpp
         connection.cpp
     1>D:\pvpgn1.99.0\source\src\d2cs\connection.cpp(84): warning C4146: unary minus operator applied to unsigned type, result still unsigned
     1>D:\pvpgn1.99.0\source\src\d2cs\connection.cpp(340): warning C4244: '=' : conversion from 'time_t' to 'unsigned int', possible loss of data
     1>D:\pvpgn1.99.0\source\src\d2cs\connection.cpp(344): warning C4244: '=' : conversion from 'time_t' to 'unsigned int', possible loss of data
     1>D:\pvpgn1.99.0\source\src\d2cs\connection.cpp(412): warning C4244: '=' : conversion from 'time_t' to 'unsigned int', possible loss of data
         d2charfile.cpp
     1>D:\pvpgn1.99.0\source\src\d2cs\d2charfile.cpp(67): warning C4244: 'argument' : conversion from 'time_t' to 'pvpgn::t_uint32', possible loss of data
     1>D:\pvpgn1.99.0\source\src\d2cs\d2charfile.cpp(68): warning C4244: 'argument' : conversion from 'time_t' to 'pvpgn::t_uint32', possible loss of data
     1>D:\pvpgn1.99.0\source\src\d2cs\d2charfile.cpp(176): warning C4244: '=' : conversion from 'time_t' to 'int', possible loss of data
     1>D:\pvpgn1.99.0\source\src\d2cs\d2charfile.cpp(454): warning C4018: '<' : signed/unsigned mismatch
         d2charlist.cpp
         d2gs.cpp
     1>D:\pvpgn1.99.0\source\src\d2cs\d2gs.cpp(431): warning C4146: unary minus operator applied to unsigned type, result still unsigned
     1>D:\pvpgn1.99.0\source\src\d2cs\d2gs.cpp(432): warning C4146: unary minus operator applied to unsigned type, result still unsigned
     1>D:\pvpgn1.99.0\source\src\d2cs\d2gs.cpp(437): warning C4146: unary minus operator applied to unsigned type, result still unsigned
     1>D:\pvpgn1.99.0\source\src\d2cs\d2gs.cpp(438): warning C4146: unary minus operator applied to unsigned type, result still unsigned
         d2ladder.cpp
         game.cpp
     1>D:\pvpgn1.99.0\source\src\d2cs\game.cpp(179): warning C4244: '=' : conversion from 'time_t' to 'int', possible loss of data
     1>D:\pvpgn1.99.0\source\src\d2cs\game.cpp(180): warning C4244: '=' : conversion from 'time_t' to 'int', possible loss of data
     1>D:\pvpgn1.99.0\source\src\d2cs\game.cpp(270): warning C4244: '=' : conversion from 'time_t' to 'int', possible loss of data
     1>D:\pvpgn1.99.0\source\src\d2cs\game.cpp(294): warning C4244: '=' : conversion from 'time_t' to 'int', possible loss of data
     1>D:\pvpgn1.99.0\source\src\d2cs\game.cpp(371): warning C4018: '>' : signed/unsigned mismatch
         gamequeue.cpp
         handle_bnetd.cpp
         handle_d2cs.cpp
     1>D:\pvpgn1.99.0\source\src\d2cs\handle_d2cs.cpp(179): warning C4244: 'argument' : conversion from 'unsigned short' to 'unsigned char', possible loss of data
     1>D:\pvpgn1.99.0\source\src\d2cs\handle_d2cs.cpp(549): warning C4244: 'argument' : conversion from 'time_t' to 'pvpgn::t_uint32', possible loss of data
         handle_d2gs.cpp
     1>D:\pvpgn1.99.0\source\src\d2cs\handle_d2gs.cpp(107): warning C4244: 'argument' : conversion from 'time_t' to 'pvpgn::t_uint32', possible loss of data
     1>D:\pvpgn1.99.0\source\src\d2cs\handle_d2gs.cpp(143): warning C4244: 'argument' : conversion from 'time_t' to 'pvpgn::t_uint32', possible loss of data
         handle_init.cpp
         handle_signal.cpp
         main.cpp
     1>D:\pvpgn1.99.0\source\src\d2cs\main.cpp(176): warning C4101: 'pid' : unreferenced local variable
         net.cpp
         prefs.cpp
     1>D:\pvpgn1.99.0\source\src\d2cs\prefs.cpp(1049): warning C4244: 'return' : conversion from 'time_t' to 'unsigned int', possible loss of data
         s2s.cpp
         server.cpp
         serverqueue.cpp
     1>D:\pvpgn1.99.0\source\src\d2cs\serverqueue.cpp(106): warning C4244: '=' : conversion from 'time_t' to 'unsigned int', possible loss of data
         Generating Code...
         Compiling...
         d2cs_winmain.cpp
         Generating Code...
       Link:
         C:\Program Files (x86)\Microsoft Visual Studio 12.0\VC\bin\link.exe /ERRORREPORT:PROMPT /OUT:"D:\pvpgn1.99.0\build\src\d2cs\Release\d2cs.exe" /INCREMENTAL:NO /NOLOGO /LIBPATH:D:/pvpgn1.99.0/build/src/common /LIBPATH:D:/pvpgn1.99.0/build/src/common/Release /LIBPATH:D:/pvpgn1.99.0/build/src/compat /LIBPATH:D:/pvpgn1.99.0/build/src/compat/Release /LIBPATH:D:/pvpgn1.99.0/build/src/win32 /LIBPATH:D:/pvpgn1.99.0/build/src/win32/Release /LIBPATH:D:/pvpgn1.99.0/build/src/tinycdb /LIBPATH:D:/pvpgn1.99.0/build/src/tinycdb/Release kernel32.lib user32.lib gdi32.lib winspool.lib shell32.lib ole32.lib oleaut32.lib uuid.lib comdlg32.lib advapi32.lib ..\common\Release\common.lib ..\compat\Release\compat.lib ..\win32\Release\win32.lib ws2_32.lib /MANIFEST /MANIFESTUAC:"level='asInvoker' uiAccess='false'" /manifest:embed /PDB:"D:/pvpgn1.99.0/build/src/d2cs/Release/d2cs.pdb" /SUBSYSTEM:WINDOWS /TLBID:1 /DYNAMICBASE /NXCOMPAT /IMPLIB:"D:/pvpgn1.99.0/build/src/d2cs/Release/d2cs.lib" /MACHINE:X86 /SAFESEH  /machine:X86 d2cs.dir\Release\d2cs_resource.res
         d2cs.dir\Release\bnetd.obj
         d2cs.dir\Release\cmdline.obj
         d2cs.dir\Release\connection.obj
         d2cs.dir\Release\d2charfile.obj
         d2cs.dir\Release\d2charlist.obj
         d2cs.dir\Release\d2gs.obj
         d2cs.dir\Release\d2ladder.obj
         d2cs.dir\Release\game.obj
         d2cs.dir\Release\gamequeue.obj
         d2cs.dir\Release\handle_bnetd.obj
         d2cs.dir\Release\handle_d2cs.obj
         d2cs.dir\Release\handle_d2gs.obj
         d2cs.dir\Release\handle_init.obj
         d2cs.dir\Release\handle_signal.obj
         d2cs.dir\Release\main.obj
         d2cs.dir\Release\net.obj
         d2cs.dir\Release\prefs.obj
         d2cs.dir\Release\s2s.obj
         d2cs.dir\Release\server.obj
         d2cs.dir\Release\serverqueue.obj
         d2cs.dir\Release\d2cs_winmain.obj
         d2cs.vcxproj -> D:\pvpgn1.99.0\build\src\d2cs\Release\d2cs.exe
     1>Done Building Project "D:\pvpgn1.99.0\build\src\d2cs\d2cs.vcxproj" (Build target(s)).

Build succeeded.

Time Elapsed 00:00:54.22
